{
    "data": {
      "attributes": {
        "is-destroy":false,
        "message": "Custom message"
      },
      "type":"runs",
      "relationships": {
        "workspace": {
          "data": {
            "type": "workspaces",
            "id": "ws-bk3z9t33fLYeaDtR"
          }
        },
        "configuration-version": {
          "data": {
            "type": "configuration-versions",
            "id": "cv-rShMdjyg7trpM9au"
          }
        }
      }
    }
  }

  curl \
  --header "Authorization: Bearer $TOKEN" \
  --header "Content-Type: application/vnd.api+json" \
  https://app.terraform.io/api/v2/plans/plan-UwFpiC2tKmor4aa8/json-output


  curl \
  --header "Authorization: Bearer $TOKEN" \
  --header "Content-Type: application/vnd.api+json" \
  https://app.terraform.io/api/api/v2/runs/run-SDuvMnmCpzN9g2pD/apply
