{
    "data": {
      "type":"vars",
      "attributes": {
        "key":"instance_count",
        "value":"2",
        "description":"Instance Count",
        "category":"terraform",
        "hcl":false,
        "sensitive":false
      }
    }
  }